(module Pin_Header_Straight_1x02 (layer F.Cu) (tedit 5633CD17)
  (descr "Through hole pin header")
  (tags "pin header")
  (fp_text reference REF** (at 0 -5.1) (layer F.SilkS)
    (effects (font (size 1 1) (thickness 0.15)))
  )
  (fp_text value Pin_Header_Straight_1x02 (at 0 -3.1) (layer F.Fab)
    (effects (font (size 1 1) (thickness 0.15)))
  )
  (fp_line (start 1.27 1.27) (end 1.27 3.81) (layer F.SilkS) (width 0.15))
  (fp_line (start 1.55 -1.55) (end 1.55 0) (layer F.SilkS) (width 0.15))
  (fp_line (start -1.75 -1.75) (end -1.75 4.3) (layer F.CrtYd) (width 0.05))
  (fp_line (start 1.75 -1.75) (end 1.75 4.3) (layer F.CrtYd) (width 0.05))
  (fp_line (start -1.75 -1.75) (end 1.75 -1.75) (layer F.CrtYd) (width 0.05))
  (fp_line (start -1.75 4.3) (end 1.75 4.3) (layer F.CrtYd) (width 0.05))
  (fp_line (start 1.27 1.27) (end -1.27 1.27) (layer F.SilkS) (width 0.15))
  (fp_line (start -1.55 0) (end -1.55 -1.55) (layer F.SilkS) (width 0.15))
  (fp_line (start -1.55 -1.55) (end 1.55 -1.55) (layer F.SilkS) (width 0.15))
  (fp_line (start -1.27 1.27) (end -1.27 3.81) (layer F.SilkS) (width 0.15))
  (fp_line (start -1.27 3.81) (end 1.27 3.81) (layer F.SilkS) (width 0.15))
  (pad 1 thru_hole rect (at 0 0) (size 2.54 2.032) (drill 1.016) (layers *.Cu *.Mask F.SilkS))
  (pad 2 thru_hole oval (at 0 2.54) (size 2.54 2.032) (drill 1.016) (layers *.Cu *.Mask F.SilkS))
  (model Pin_Headers.3dshapes/Pin_Header_Straight_1x02.wrl
    (at (xyz 0 -0.05 0))
    (scale (xyz 1 1 1))
    (rotate (xyz 0 0 90))
  )
)
