EESchema Schematic File Version 2
LIBS:common
LIBS:power
LIBS:connect
LIBS:stm
LIBS:radio
LIBS:handler
LIBS:clock
LIBS:display
LIBS:project-cache
EELAYER 25 0
EELAYER END
$Descr A4 11693 8268
encoding utf-8
Sheet 1 2
Title ""
Date ""
Rev ""
Comp ""
Comment1 ""
Comment2 ""
Comment3 ""
Comment4 ""
$EndDescr
$Comp
L R R?
U 1 1 56338AA0
P 900 900
F 0 "R?" H 900 980 50  0000 C CNN
F 1 "R" H 900 900 50  0000 C CNN
F 2 "" H 900 830 30  0000 C CNN
F 3 "" V 900 900 30  0000 C CNN
	1    900  900 
	1    0    0    -1  
$EndComp
$Comp
L C C?
U 1 1 56338AF9
P 1500 900
F 0 "C?" V 1400 925 50  0000 L CNN
F 1 "C" V 1600 925 50  0000 L CNN
F 2 "" V 1650 938 30  0000 C CNN
F 3 "" V 1500 900 60  0000 C CNN
	1    1500 900 
	1    0    0    -1  
$EndComp
$Comp
L D D?
U 1 1 56338B16
P 2100 900
F 0 "D?" H 2100 1000 50  0000 C CNN
F 1 "D" H 2100 800 50  0000 C CNN
F 2 "" H 2100 900 60  0000 C CNN
F 3 "" H 2100 900 60  0000 C CNN
	1    2100 900 
	1    0    0    -1  
$EndComp
$Comp
L DS D?
U 1 1 56338C1B
P 2100 1300
F 0 "D?" H 2100 1400 50  0000 C CNN
F 1 "DS" H 2100 1200 50  0000 C CNN
F 2 "" H 2100 1300 60  0000 C CNN
F 3 "" H 2100 1300 60  0000 C CNN
	1    2100 1300
	1    0    0    -1  
$EndComp
$Comp
L DZ D?
U 1 1 56338C64
P 2100 1700
F 0 "D?" H 2100 1800 50  0000 C CNN
F 1 "DZ" H 2100 1600 50  0000 C CNN
F 2 "" H 2100 1700 60  0000 C CNN
F 3 "" H 2100 1700 60  0000 C CNN
	1    2100 1700
	1    0    0    -1  
$EndComp
$Comp
L CP C?
U 1 1 56338C8F
P 1500 1300
F 0 "C?" V 1400 1325 50  0000 L CNN
F 1 "CP" V 1600 1325 50  0000 L CNN
F 2 "" V 1650 1338 30  0000 C CNN
F 3 "" V 1500 1300 60  0000 C CNN
	1    1500 1300
	1    0    0    -1  
$EndComp
$Comp
L TRIAC U?
U 1 1 56338CF8
P 2700 900
F 0 "U?" H 2700 1030 50  0000 C CNN
F 1 "TRIAC" H 2700 775 50  0000 C CNN
F 2 "" H 2705 935 60  0000 C CNN
F 3 "" H 2705 935 60  0000 C CNN
	1    2700 900 
	1    0    0    -1  
$EndComp
$Comp
L BAT BT?
U 1 1 56339036
P 900 2150
F 0 "BT?" H 1000 2200 50  0000 L CNN
F 1 "BAT" H 1000 2100 50  0000 L CNN
F 2 "" V 900 2190 60  0000 C CNN
F 3 "" V 900 2190 60  0000 C CNN
	1    900  2150
	1    0    0    -1  
$EndComp
$Comp
L NPN Q?
U 1 1 5633919D
P 3350 900
F 0 "Q?" H 3350 1050 50  0000 R CNN
F 1 "NPN" H 3350 750 50  0000 R CNN
F 2 "" H 3500 1000 29  0000 C CNN
F 3 "" H 3300 900 60  0000 C CNN
	1    3350 900 
	1    0    0    -1  
$EndComp
$Comp
L PNP Q?
U 1 1 563392AE
P 3350 1400
F 0 "Q?" H 3350 1550 50  0000 R CNN
F 1 "PNP" H 3350 1250 50  0000 R CNN
F 2 "" H 3550 1500 29  0000 C CNN
F 3 "" H 3350 1400 60  0000 C CNN
	1    3350 1400
	1    0    0    -1  
$EndComp
$Comp
L L L?
U 1 1 5633A1EA
P 900 1800
F 0 "L?" H 860 1870 50  0000 L CNN
F 1 "L" H 870 1750 50  0000 L CNN
F 2 "" V 900 1800 60  0000 C CNN
F 3 "" V 900 1800 60  0000 C CNN
	1    900  1800
	1    0    0    -1  
$EndComp
$Comp
L N_FET Q?
U 1 1 5633B714
P 4050 900
F 0 "Q?" H 4050 1050 50  0000 R CNN
F 1 "N_FET" H 4050 750 50  0000 R CNN
F 2 "" H 4200 1000 29  0000 C CNN
F 3 "" H 4000 900 60  0000 C CNN
	1    4050 900 
	1    0    0    -1  
$EndComp
$Comp
L P_FET Q?
U 1 1 5633B781
P 4050 1400
F 0 "Q?" H 4050 1550 50  0000 R CNN
F 1 "P_FET" H 4050 1250 50  0000 R CNN
F 2 "" H 4200 1500 29  0000 C CNN
F 3 "" H 4000 1400 60  0000 C CNN
	1    4050 1400
	1    0    0    -1  
$EndComp
$Comp
L OPTO_NPN U?
U 1 1 5633BE38
P 3500 1950
F 0 "U?" H 3460 2105 50  0000 R CNN
F 1 "OPTO_NPN" H 3600 1750 50  0000 R CNN
F 2 "" H 3650 2050 29  0000 C CNN
F 3 "" H 3450 1950 60  0000 C CNN
	1    3500 1950
	1    0    0    -1  
$EndComp
$Comp
L OPTO_TRIAC U?
U 1 1 5633C519
P 4100 1950
F 0 "U?" H 4060 2105 50  0000 R CNN
F 1 "OPTO_TRIAC" H 4200 1750 50  0000 R CNN
F 2 "" H 4250 2050 29  0000 C CNN
F 3 "" H 4085 1950 60  0000 C CNN
	1    4100 1950
	1    0    0    -1  
$EndComp
$Comp
L LM1117 U?
U 1 1 5633CEFD
P 7100 1000
F 0 "U?" H 7100 1200 60  0000 C CNN
F 1 "LM1117" H 7100 1100 60  0000 C CNN
F 2 "" H 7100 1000 60  0000 C CNN
F 3 "" H 7100 1000 60  0000 C CNN
	1    7100 1000
	1    0    0    -1  
$EndComp
$Comp
L LM78XX U?
U 1 1 5633D07F
P 7100 1600
F 0 "U?" H 7100 1800 60  0000 C CNN
F 1 "LM78XX" H 7100 1700 60  0000 C CNN
F 2 "" H 7100 1600 60  0000 C CNN
F 3 "" H 7100 1600 60  0000 C CNN
	1    7100 1600
	1    0    0    -1  
$EndComp
$Sheet
S 9000 900  1100 400 
U 5633DD30
F0 "ST MCU" 60
F1 "stm.sch" 60
$EndSheet
$EndSCHEMATC
