EESchema Schematic File Version 2
LIBS:common
LIBS:power
LIBS:connect
LIBS:stm
LIBS:radio
LIBS:handler
LIBS:clock
LIBS:display
LIBS:project-cache
EELAYER 25 0
EELAYER END
$Descr A4 11693 8268
encoding utf-8
Sheet 2 2
Title ""
Date ""
Rev ""
Comp ""
Comment1 ""
Comment2 ""
Comment3 ""
Comment4 ""
$EndDescr
$Comp
L STM32F100C8T6 D?
U 1 1 5633DE9B
P 3200 2300
F 0 "D?" H 3200 3900 60  0000 C CNN
F 1 "STM32F100C8T6" H 3200 1500 60  0000 C CNN
F 2 "" H 3650 2250 60  0000 C CNN
F 3 "" H 3650 2250 60  0000 C CNN
	1    3200 2300
	1    0    0    -1  
$EndComp
$Comp
L STM32F103RBT6 D?
U 1 1 5633F8DC
P 2500 5850
F 0 "D?" H 2500 7650 60  0000 C CNN
F 1 "STM32F103RBT6" H 2500 4050 60  0000 C CNN
F 2 "" H 2500 5850 60  0000 C CNN
F 3 "" H 2500 5850 60  0000 C CNN
	1    2500 5850
	1    0    0    -1  
$EndComp
$Comp
L STM32F103VBT6 D?
U 1 1 5633F9D7
P 8400 3350
F 0 "D?" H 8400 6000 60  0000 C CNN
F 1 "STM32F103VBT6" H 8400 1700 60  0000 C CNN
F 2 "" H 8400 3350 60  0000 C CNN
F 3 "" H 8400 3350 60  0000 C CNN
	1    8400 3350
	1    0    0    -1  
$EndComp
$EndSCHEMATC
